{
    "config": {
        "type": "official",
        "application_uuid": "6465d3e1-7015-4e31-8566-cae5a5725938"
    },
    "application_info": {
        "uuid": "6465d3e1-7015-4e31-8566-cae5a5725938",
        "name": "official-nevermore",
        "status": "Running"
    }
}