{
    "config": {
        "type": "prometheus",
        "integration_uuid": "6465d3e1-7015-4e31-8566-cae5a5725937"
    },
    "integration_info": {
        "uuid": "6465d3e1-7015-4e31-8566-cae5a5725937",
        "type": "prometheus",
        "enabled": true
    }
}